{
	"variables": [],
	"info": {
		"name": "Splitwise",
		"_postman_id": "a7a49e75-ab60-f204-53f9-9d4ea142a297",
		"description": "",
		"schema": "https://schema.getpostman.com/json/collection/v2.0.0/collection.json"
	},
	"item": [
		{
			"name": "Create User 1",
			"request": {
				"url": "http://localhost:8080/users",
				"method": "POST",
				"header": [
					{
						"key": "Content-Type",
						"value": "application/json",
						"description": ""
					}
				],
				"body": {
					"mode": "raw",
					"raw": "{\r\n  \"userName\": \"Akhil\",\r\n  \"emailId\":\"akhil@gmail.com\",\r\n  \"mobileNo\":\"9999999999\"\r\n}"
				},
				"description": ""
			},
			"response": []
		},
		{
			"name": "Create User 2",
			"request": {
				"url": "http://localhost:8080/users",
				"method": "POST",
				"header": [
					{
						"key": "Content-Type",
						"value": "application/json",
						"description": ""
					}
				],
				"body": {
					"mode": "raw",
					"raw": "{\r\n  \"userName\": \"Nikhil\",\r\n  \"emailId\":\"nikhil@gmail.com\",\r\n  \"mobileNo\":\"9999999999\"\r\n}"
				},
				"description": ""
			},
			"response": []
		},
		{
			"name": "Create User 3",
			"request": {
				"url": "http://localhost:8080/users",
				"method": "POST",
				"header": [
					{
						"key": "Content-Type",
						"value": "application/json",
						"description": ""
					}
				],
				"body": {
					"mode": "raw",
					"raw": "{\r\n  \"userName\": \"Sam\",\r\n  \"emailId\":\"sam@gmail.com\",\r\n  \"mobileNo\":\"9999999999\"\r\n}"
				},
				"description": ""
			},
			"response": []
		},
		{
			"name": "Create User 4",
			"request": {
				"url": "http://localhost:8080/users",
				"method": "POST",
				"header": [
					{
						"key": "Content-Type",
						"value": "application/json",
						"description": ""
					}
				],
				"body": {
					"mode": "raw",
					"raw": "{\r\n  \"userName\": \"John\",\r\n  \"emailId\":\"John@gmail.com\",\r\n  \"mobileNo\":\"9999999999\"\r\n}"
				},
				"description": ""
			},
			"response": []
		},
		{
			"name": "Create group",
			"request": {
				"url": "http://localhost:8080/groups",
				"method": "POST",
				"header": [
					{
						"key": "Content-Type",
						"value": "application/json",
						"description": ""
					}
				],
				"body": {
					"mode": "raw",
					"raw": "{\r\n  \"groupName\": \"flatmates\",\r\n  \"members\": [\r\n    {\r\n      \"userId\": 1\r\n      \r\n    }, {\r\n      \"userId\": 2\r\n      \r\n    }, {\r\n      \"userId\": 3\r\n      \r\n    }, {\r\n      \"userId\": 4\r\n      \r\n    }\r\n  ]\r\n}\r\n"
				},
				"description": ""
			},
			"response": []
		},
		{
			"name": "List groups",
			"request": {
				"url": "http://localhost:8080/groups",
				"method": "GET",
				"header": [
					{
						"key": "Content-Type",
						"value": "application/json",
						"description": ""
					}
				],
				"body": {
					"mode": "raw",
					"raw": "{\r\n  \"groupName\": \"flatmates\",\r\n  \"members\": [\r\n    {\r\n      \"userId\": 1\r\n      \r\n    },{\r\n      \"userId\": 2\r\n      \r\n    },{\r\n      \"userId\": 3\r\n      \r\n    }\r\n  ]\r\n}"
				},
				"description": ""
			},
			"response": []
		},
		{
			"name": "Query balance in group for user",
			"request": {
				"url": "localhost:8080/expense/group/1/user/1",
				"method": "GET",
				"header": [
					{
						"key": "Content-Type",
						"value": "application/json",
						"description": ""
					}
				],
				"body": {
					"mode": "raw",
					"raw": "{\r\n  \"expenseLabel\": \"Pizza\",\r\n  \"expenseGroup\": {\r\n    \"groupId\": 1\r\n  },\r\n  \"amount\": 100,\r\n  \"details\": [\r\n    {\r\n      \"user\": {\r\n        \"userId\": 1\r\n      },\r\n      \"userContributionShare\": 100,\r\n      \"userExpendShare\": 100\r\n    }\r\n  ],\r\n  \"expenseType\": \"PERCENTAGE\"\r\n}"
				},
				"description": ""
			},
			"response": []
		},
		{
			"name": "Create Exepsne 1",
			"request": {
				"url": "localhost:8080/expense/",
				"method": "POST",
				"header": [
					{
						"key": "Content-Type",
						"value": "application/json",
						"description": ""
					}
				],
				"body": {
					"mode": "raw",
					"raw": "{\r\n  \"expenseLabel\": \"Electricity\",\r\n  \"expenseGroup\": {\r\n    \"groupId\": 1\r\n  },\r\n  \"amount\": 1000,\r\n  \"details\": [\r\n    {\r\n      \"user\": {\r\n        \"userId\": 1\r\n      },\r\n      \"userContributionShare\": 1000\r\n    },\r\n     {\r\n      \"user\": {\r\n        \"userId\": 2\r\n      }\r\n    },\r\n     {\r\n      \"user\": {\r\n        \"userId\": 3\r\n      }\r\n    },\r\n     {\r\n      \"user\": {\r\n        \"userId\": 4\r\n      }\r\n    }\r\n    \r\n  ],\r\n  \"expenseType\": \"EQUAL\"\r\n}\r\n"
				},
				"description": ""
			},
			"response": []
		},
		{
			"name": "Create Exepsne2",
			"request": {
				"url": "localhost:8080/expense/",
				"method": "POST",
				"header": [
					{
						"key": "Content-Type",
						"value": "application/json",
						"description": ""
					}
				],
				"body": {
					"mode": "raw",
					"raw": "{\r\n  \"expenseLabel\": \"BBD sale\",\r\n  \"expenseGroup\": {\r\n    \"groupId\": 1\r\n  },\r\n  \"amount\": 1250 ,\r\n  \"details\": [\r\n    {\r\n      \"user\": {\r\n        \"userId\": 1\r\n      },\r\n      \"userContributionShare\": 1250\r\n    },\r\n     {\r\n      \"user\": {\r\n        \"userId\": 2\r\n      },\"userExpendShare\": 370\r\n    },\r\n     {\r\n      \"user\": {\r\n        \"userId\": 3\r\n      },\"userExpendShare\": 880\r\n    }\r\n    \r\n  ],\r\n  \"expenseType\": \"EXACT\"\r\n}"
				},
				"description": ""
			},
			"response": []
		},
		{
			"name": "Create Exepsne3",
			"request": {
				"url": "localhost:8080/expense/",
				"method": "POST",
				"header": [
					{
						"key": "Content-Type",
						"value": "application/json",
						"description": ""
					}
				],
				"body": {
					"mode": "raw",
					"raw": "{\r\n  \"expenseLabel\": \"Trip\",\r\n  \"expenseGroup\": {\r\n    \"groupId\": 1\r\n  },\r\n  \"amount\": 1200  ,\r\n  \"details\": [\r\n    {\r\n      \"user\": {\r\n        \"userId\": 1\r\n      },\r\n      \"userExpendShare\": 40\r\n    },\r\n     {\r\n      \"user\": {\r\n        \"userId\": 2\r\n        \r\n      },\"userExpendShare\": 20\r\n    },\r\n     {\r\n      \"user\": {\r\n        \"userId\": 3\r\n      },\"userExpendShare\": 20\r\n    },\r\n    {\r\n      \"user\": {\r\n        \"userId\": 4\r\n      },\r\n      \"userContributionShare\": 1200,\r\n      \"userExpendShare\": 20\r\n    }\r\n    \r\n  ],\r\n  \"expenseType\": \"PERCENTAGE\"\r\n}"
				},
				"description": ""
			},
			"response": []
		},
		{
			"name": "List Users",
			"request": {
				"url": "http://localhost:8080/users",
				"method": "GET",
				"header": [
					{
						"key": "Content-Type",
						"value": "application/json",
						"description": ""
					}
				],
				"body": {
					"mode": "raw",
					"raw": "{\r\n  \"userName\": \"Upendra3\",\r\n  \"emailId\": \"upendra@gmail.com\",\r\n  \"mobileNo\": \"999999999\"\r\n}"
				},
				"description": ""
			},
			"response": []
		},
		{
			"name": "Settle balance ",
			"request": {
				"url": "localhost:8080/expense/settle/group/1/user/2/with/1",
				"method": "PUT",
				"header": [
					{
						"key": "Content-Type",
						"value": "application/json",
						"description": ""
					}
				],
				"body": {
					"mode": "raw",
					"raw": "{\r\n  \"expenseLabel\": \"Pizza\",\r\n  \"expenseGroup\": {\r\n    \"groupId\": 1\r\n  },\r\n  \"amount\": 100,\r\n  \"details\": [\r\n    {\r\n      \"user\": {\r\n        \"userId\": 1\r\n      },\r\n      \"userContributionShare\": 100,\r\n      \"userExpendShare\": 100\r\n    }\r\n  ],\r\n  \"expenseType\": \"PERCENTAGE\"\r\n}"
				},
				"description": ""
			},
			"response": []
		}
	]
}